…
We have a running list of health topics for matching to publications, this is in the project folder (`data`, should have downloaded with project) - load this into RStudio as:

``` r
# Get lookup table
lookup <- read_csv("data/ISD_lookup_topics.csv",
                   col_types = "cc")
```

Check that it looks ok by typing the name of the object in the console (`lookup`) or clicking the name of the object in the upper right `environment` panel

``` r
lookup
```

    ## # A tibble: 82 x 2
    ##    TitleCode                                        HealthTopic            
    ##    <chr>                                            <chr>                  
    ##  1 Emergency Department Activity & Waiting Times    Waiting-Times          
    ##  2 NHS Performs - Weekly Update of Emergency Depar~ Emergency-Care         
    ##  3 Delayed Discharges in NHSScotland                Health-and-Social-Comm~
    ##  4 NHS Waiting Times                                Waiting-Times          
    ##  5 Allied Health Professionals - Musculoskeletal W~ Waiting-Times          
    ##  6 Prescribing Statistics                           Prescribing-and-Medici~
    ##  7 Cancelled Planned Operations                     Hospital-Care          
    ##  8 Cancer Waiting Times                             Waiting-Times          
    ##  9 Chronic Pain Waiting Times                       Waiting-Times          
    ## 10 IVF Waiting Times                                Waiting-Times          
    ## # ... with 72 more rows
…
    ## select: dropped 3 variables (Frequency, Reason for Change, Publication Type)

Check that it looks ok by typing `new_pubs` into the console or clicking on it in upper right panel.

``` r
new_pubs
```

    ## # A tibble: 178 x 4
    ##    DatePublished Title             Synopsis           ContactName          
    ##    <chr>         <chr>             <chr>              <chr>                
    ##  1 28-Jan-20     Heart Disease St~ Annual update of ~ "Colin Houston\r\nte~
    ##  2 28-Jan-20     Scottish Atlas o~ Scottish Atlas of~ "Graham McGowan\r\nt~
    ##  3 28-Jan-20     Stroke Statistic~ Annual update of ~ "Colin Houston\r\nte~
    ##  4 28-Jan-20     Resource Allocat~ NHSScotland 2022/~ "Edmund Anderson\r\n~
    ##  5 28-Jan-20     NHS Performs - W~ This release of N~ "Kathy McGregor\r\nt~
    ##  6 04-Feb-20     Delayed Discharg~ The publication p~ "Alice Byers\r\ntel.~
    ##  7 04-Feb-20     Scottish Bowel S~ Bowel screening k~ "Garry Hecht\r\ntel.~
    ##  8 04-Feb-20     Cancelled Planne~ Statistics on NHS~ "Greig Stanners\r\nt~
    ##  9 04-Feb-20     Emergency Depart~ Attendances trend~ "Kathy McGregor\r\nt~
    ## 10 04-Feb-20     NHS Performs - W~ This release of N~ "Catriona Haddow\r\n~
    ## # ... with 168 more rows
…
    ## Warning: 46 failed to parse.

    ## Warning: 68 failed to parse.

    ## Warning: 46 failed to parse.

    ## mutate: converted 'DatePublished' from character to double (0 new NA)

``` r
new_pubs
```

    ## # A tibble: 178 x 4
    ##    DatePublished Title             Synopsis           ContactName          
    ##    <date>        <chr>             <chr>              <chr>                
    ##  1 2020-01-28    Heart Disease St~ Annual update of ~ "Colin Houston\r\nte~
    ##  2 2020-01-28    Scottish Atlas o~ Scottish Atlas of~ "Graham McGowan\r\nt~
    ##  3 2020-01-28    Stroke Statistic~ Annual update of ~ "Colin Houston\r\nte~
    ##  4 2020-01-28    Resource Allocat~ NHSScotland 2022/~ "Edmund Anderson\r\n~
    ##  5 2020-01-28    NHS Performs - W~ This release of N~ "Kathy McGregor\r\nt~
    ##  6 2020-02-04    Delayed Discharg~ The publication p~ "Alice Byers\r\ntel.~
    ##  7 2020-02-04    Scottish Bowel S~ Bowel screening k~ "Garry Hecht\r\ntel.~
    ##  8 2020-02-04    Cancelled Planne~ Statistics on NHS~ "Greig Stanners\r\nt~
    ##  9 2020-02-04    Emergency Depart~ Attendances trend~ "Kathy McGregor\r\nt~
    ## 10 2020-02-04    NHS Performs - W~ This release of N~ "Catriona Haddow\r\n~
    ## # ... with 168 more rows
…
